{
  "team_name": "WSG",
  "admin_password": "admin",
  "play_password": "play",
  "weeks": 45,
  "auto_decide_ship_qty": true,
  "auto_decide_order_qty": true,
  "auto_order_method": "WSG",
  "demands":[
    {"name":"LumberClient","demand":[4,4,4,4,8,8,8,8,8,8,8,8,8,8,8,8,8,8,8,8,8,8,8,8,8,8,8,8,8,8,8,8,8,8,8,8,8,8,8,8,8,8,8,8,8]},
    {"name":"PaperClient","demand":[4,4,4,4,8,8,8,8,8,8,8,8,8,8,8,8,8,8,8,8,8,8,8,8,8,8,8,8,8,8,8,8,8,8,8,8,8,8,8,8,8,8,8,8,8]}
  ],
  "stations":[
    {"name":"LumberRetailer",
    "player_name":"cpu",
    "auto_decide_ship_qty": true,
    "auto_decide_order_qty": true,
    "holding_cost":1,
    "backorder_cost":2,
    "transport_cost":0,
    "transport_size":5,
    "delay_shipping":2,
    "delay_ordering":2,
    "initial_queue_quantity":4,
    "initial_inventory":12,
    "safety_stock":40,
    "production_min":[],
    "production_max":[]},
    {"name":"PaperRetailer",
    "player_name":"cpu",
    "auto_decide_ship_qty": true,
    "auto_decide_order_qty": true,
    "holding_cost":1,
    "backorder_cost":2,
    "transport_cost":0,
    "transport_size":5,
    "delay_shipping":2,
    "delay_ordering":2,
    "initial_queue_quantity":4,
    "initial_inventory":12,
    "safety_stock":40,
    "production_min":[],
    "production_max":[]},
    {"name":"LumberWholesaler",
    "player_name":"cpu",
    "auto_decide_ship_qty": true,
    "auto_decide_order_qty": true,
    "holding_cost":1,
    "backorder_cost":2,
    "transport_cost":0,
    "transport_size":5,
    "delay_shipping":2,
    "delay_ordering":2,
    "initial_queue_quantity":4,
    "initial_inventory":12,
    "safety_stock":40,
    "production_min":[],
    "production_max":[]},
    {"name":"PaperWholesaler",
    "player_name":"cpu",
    "auto_decide_ship_qty": true,
    "auto_decide_order_qty": true,
    "holding_cost":1,
    "backorder_cost":2,
    "transport_cost":0,
    "transport_size":5,
    "delay_shipping":2,
    "delay_ordering":2,
    "initial_queue_quantity":4,
    "initial_inventory":12,
    "safety_stock":40,
    "production_min":[],
    "production_max":[]},
    {"name":"PaperMill",
    "player_name":"cpu",
    "auto_decide_ship_qty": true,
    "auto_decide_order_qty": true,
    "holding_cost":1,
    "backorder_cost":2,
    "transport_cost":0,
    "transport_size":5,
    "delay_shipping":2,
    "delay_ordering":2,
    "initial_queue_quantity":4,
    "initial_inventory":12,
    "safety_stock":40,
    "production_min":[],
    "production_max":[]},
    {"name":"SawMill",
    "player_name":"cpu",
    "auto_decide_ship_qty": true,
    "auto_decide_order_qty": true,
    "holding_cost":1,
    "backorder_cost":2,
    "transport_cost":0,
    "transport_size":5,
    "delay_shipping":2,
    "delay_ordering":2,
    "initial_queue_quantity":8,
    "initial_inventory":24,
    "safety_stock":85,
    "production_min":[],
    "production_max":[]},
    {"name":"Forest",
    "player_name":"cpu",
    "auto_decide_ship_qty": true,
    "auto_decide_order_qty": true,
    "holding_cost":1,
    "backorder_cost":2,
    "transport_cost":0,
    "transport_size":5,
    "delay_shipping":1,
    "delay_ordering":0,
    "initial_queue_quantity":7,
    "initial_inventory":12,
    "safety_stock":35,
    "production_min":[7,7,7,6,6,6,6,6,6,6,4,4,4,4,0,0,6,6,6,6,4,4,4,4,4,4,6,6,6,6,6,6,6,6,6,6,6,6,6,6,4,4,4,4,4],
    "production_max":[18,18,18,24,24,24,24,24,24,24,26,26,26,26,0,0,28,28,28,28,26,26,26,26,26,26,24,24,24,24,24,24,24,24,24,24,24,24,24,24,26,26,26,26,26]}
  ],
  "connections": [
    {"supp":"Forest","cust":"SawMill"},
    {"supp":"SawMill","cust":"LumberWholesaler"},
    {"supp":"LumberWholesaler","cust":"LumberRetailer"},
    {"supp":"LumberRetailer","cust":"LumberClient"},
    {"supp":"SawMill","cust":"PaperMill"},
    {"supp":"PaperMill","cust":"PaperWholesaler"},
    {"supp":"PaperWholesaler","cust":"PaperRetailer"},
    {"supp":"PaperRetailer","cust":"PaperClient"}
  ]
}
